%YAML 1.1
%TAG !u! tag:unity3d.com,2011:
--- !u!114 &11400000
MonoBehaviour:
  m_ObjectHideFlags: 0
  m_CorrespondingSourceObject: {fileID: 0}
  m_PrefabInstance: {fileID: 0}
  m_PrefabAsset: {fileID: 0}
  m_GameObject: {fileID: 0}
  m_Enabled: 1
  m_EditorHideFlags: 0
  m_Script: {fileID: 11500000, guid: aa422ab50e8f18941ba2858afb639c46, type: 3}
  m_Name: HexShape
  m_EditorClassIdentifier: 
  SavedHexagonPositions:
  - HexagonType: {fileID: 11400000, guid: f4d7610a795e0e54d82e07ea6fd0ddf8, type: 2}
    SavedPositions:
    - X: -1
      Y: -1
      Z: 2
    - X: 0
      Y: -1
      Z: 1
    - X: 1
      Y: -1
      Z: 0
    - X: -2
      Y: 0
      Z: 2
    - X: -1
      Y: 0
      Z: 1
    - X: 0
      Y: 0
      Z: 0
    - X: 1
      Y: 0
      Z: -1
    - X: -3
      Y: 1
      Z: 2
    - X: -2
      Y: 1
      Z: 1
    - X: -1
      Y: 1
      Z: 0
    - X: 0
      Y: 1
      Z: -1
    - X: 1
      Y: 1
      Z: -2
    - X: -3
      Y: 2
      Z: 1
    - X: -2
      Y: 2
      Z: 0
    - X: -1
      Y: 2
      Z: -1
    - X: 0
      Y: 2
      Z: -2
    - X: -3
      Y: 3
      Z: 0
    - X: -2
      Y: 3
      Z: -1
    - X: -1
      Y: 3
      Z: -2
    - X: 2
      Y: -2
      Z: 0
    - X: 2
      Y: -1
      Z: -1
    - X: 2
      Y: 0
      Z: -2
    - X: 2
      Y: 1
      Z: -3
    - X: 1
      Y: 2
      Z: -3
    - X: 0
      Y: 3
      Z: -3
    - X: -3
      Y: 0
      Z: 3
    - X: -2
      Y: -1
      Z: 3
    - X: -1
      Y: -2
      Z: 3
    - X: 0
      Y: -2
      Z: 2
    - X: 1
      Y: -2
      Z: 1
    - X: 3
      Y: 0
      Z: -3
    - X: 3
      Y: -1
      Z: -2
    - X: 3
      Y: -2
      Z: -1
    - X: 3
      Y: -3
      Z: 0
    - X: 2
      Y: -3
      Z: 1
    - X: 1
      Y: -3
      Z: 2
    - X: 0
      Y: -3
      Z: 3
